%YAML 1.1
%TAG !u! tag:unity3d.com,2011:
--- !u!114 &11400000
MonoBehaviour:
  m_ObjectHideFlags: 0
  m_CorrespondingSourceObject: {fileID: 0}
  m_PrefabInstance: {fileID: 0}
  m_PrefabAsset: {fileID: 0}
  m_GameObject: {fileID: 0}
  m_Enabled: 1
  m_EditorHideFlags: 0
  m_Script: {fileID: 11500000, guid: 6b2a4ad781fbfd241aa5f0af80153015, type: 3}
  m_Name: Enemy 3
  m_EditorClassIdentifier: 
  startState: 0
  UseGlobalSpeed: 1
  UnifromSpeed: 0
  speed: 0
  animationSpeed:
  - 0
  - 0
  DisableAfterPlay: 0
  List:
  - {fileID: 21300008, guid: 4983628b3c49c9d4285008edbf06b683, type: 3}
  - {fileID: 21300010, guid: 4983628b3c49c9d4285008edbf06b683, type: 3}
