%YAML 1.1
%TAG !u! tag:unity3d.com,2011:
--- !u!114 &11400000
MonoBehaviour:
  m_ObjectHideFlags: 0
  m_CorrespondingSourceObject: {fileID: 0}
  m_PrefabInstance: {fileID: 0}
  m_PrefabAsset: {fileID: 0}
  m_GameObject: {fileID: 0}
  m_Enabled: 1
  m_EditorHideFlags: 0
  m_Script: {fileID: 11500000, guid: 6b2a4ad781fbfd241aa5f0af80153015, type: 3}
  m_Name: Player Death
  m_EditorClassIdentifier: 
  startState: 0
  UseGlobalSpeed: 0
  UnifromSpeed: 1
  speed: 0.25
  animationSpeed:
  - 0
  - 0
  DisableAfterPlay: 0
  List:
  - {fileID: 21300000, guid: 2a0d626ff8a324b4b8312476fcc6691d, type: 3}
  - {fileID: 21300002, guid: 2a0d626ff8a324b4b8312476fcc6691d, type: 3}
